<svg width="18" height="16" viewBox="0 0 18 16" fill="none" xmlns="http://www.w3.org/2000/svg">
<path d="M0.405431 8.18562C0.405431 8.45913 0.514081 8.72143 0.707478 8.91483C0.900875 9.10822 1.16318 9.21687 1.43668 9.21687H14.0695L9.642 13.6435C9.44826 13.8372 9.33943 14.1 9.33943 14.374C9.33943 14.648 9.44826 14.9107 9.642 15.1045C9.83573 15.2982 10.0985 15.407 10.3725 15.407C10.6464 15.407 10.9092 15.2982 11.1029 15.1045L17.2904 8.91695C17.3866 8.82114 17.4629 8.7073 17.5149 8.58195C17.567 8.4566 17.5938 8.32221 17.5938 8.18648C17.5938 8.05076 17.567 7.91636 17.5149 7.79101C17.4629 7.66566 17.3866 7.55182 17.2904 7.45601L11.1029 1.26851C11.007 1.17259 10.8931 1.09649 10.7678 1.04458C10.6425 0.992663 10.5081 0.965942 10.3725 0.965942C10.2368 0.965942 10.1025 0.992663 9.97714 1.04458C9.8518 1.09649 9.73792 1.17259 9.642 1.26851C9.54607 1.36444 9.46998 1.47832 9.41806 1.60365C9.36615 1.72899 9.33943 1.86332 9.33943 1.99898C9.33943 2.13464 9.36615 2.26897 9.41806 2.39431C9.46998 2.51964 9.54607 2.63352 9.642 2.72945L14.0695 7.15437H1.43668C1.16318 7.15437 0.900875 7.26302 0.707478 7.45642C0.514081 7.64982 0.405431 7.91212 0.405431 8.18562Z" fill="#111111"/>
</svg>
