<svg width="949" height="475" viewBox="0 0 949 475" fill="none" xmlns="http://www.w3.org/2000/svg">
<rect x="150.697" y="-323.303" width="647.605" height="647.605" rx="323.802" stroke="#F46141" stroke-opacity="0.08" stroke-width="2"/>
<rect x="1" y="-473" width="947" height="947" rx="473.5" stroke="#F46141" stroke-opacity="0.05" stroke-width="2"/>
<rect x="301.769" y="-172.231" width="346.781" height="346.781" rx="173.391" stroke="#F46141" stroke-opacity="0.1" stroke-width="2"/>
</svg>
