<svg width="1440" height="1744" viewBox="0 0 1440 1744" fill="none" xmlns="http://www.w3.org/2000/svg">
<g opacity="0.3">
<g filter="url(#filter0_f_35_2187)">
<circle cx="529.5" cy="804.5" r="624.5" fill="url(#paint0_radial_35_2187)"/>
</g>
<g filter="url(#filter1_f_35_2187)">
<circle cx="1075.5" cy="919.5" r="624.5" fill="url(#paint1_radial_35_2187)"/>
</g>
</g>
<defs>
<filter id="filter0_f_35_2187" x="-295" y="-20" width="1649" height="1649" filterUnits="userSpaceOnUse" color-interpolation-filters="sRGB">
<feFlood flood-opacity="0" result="BackgroundImageFix"/>
<feBlend mode="normal" in="SourceGraphic" in2="BackgroundImageFix" result="shape"/>
<feGaussianBlur stdDeviation="100" result="effect1_foregroundBlur_35_2187"/>
</filter>
<filter id="filter1_f_35_2187" x="251" y="95" width="1649" height="1649" filterUnits="userSpaceOnUse" color-interpolation-filters="sRGB">
<feFlood flood-opacity="0" result="BackgroundImageFix"/>
<feBlend mode="normal" in="SourceGraphic" in2="BackgroundImageFix" result="shape"/>
<feGaussianBlur stdDeviation="100" result="effect1_foregroundBlur_35_2187"/>
</filter>
<radialGradient id="paint0_radial_35_2187" cx="0" cy="0" r="1" gradientUnits="userSpaceOnUse" gradientTransform="translate(529.5 804.5) rotate(90) scale(624.5)">
<stop stop-color="#FB4034"/>
<stop offset="1" stop-color="white" stop-opacity="0"/>
</radialGradient>
<radialGradient id="paint1_radial_35_2187" cx="0" cy="0" r="1" gradientUnits="userSpaceOnUse" gradientTransform="translate(1075.5 919.5) rotate(90) scale(624.5)">
<stop stop-color="#FD6E30"/>
<stop offset="1" stop-color="white" stop-opacity="0"/>
</radialGradient>
</defs>
</svg>
