<svg width="24" height="24" viewBox="0 0 24 24" fill="none" xmlns="http://www.w3.org/2000/svg">
<mask id="mask0_35_622" style="mask-type:alpha" maskUnits="userSpaceOnUse" x="0" y="0" width="24" height="24">
<rect width="24" height="24" fill="#D9D9D9"/>
</mask>
<g mask="url(#mask0_35_622)">
<path d="M13.7499 14.7692C13.9948 14.7692 14.2086 14.6779 14.3913 14.4952C14.574 14.3125 14.6653 14.0987 14.6653 13.8538C14.6653 13.6089 14.574 13.3952 14.3913 13.2125C14.2086 13.0298 13.9948 12.9385 13.7499 12.9385C13.5051 12.9385 13.2913 13.0298 13.1086 13.2125C12.9259 13.3952 12.8345 13.6089 12.8345 13.8538C12.8345 14.0987 12.9259 14.3125 13.1086 14.4952C13.2913 14.6779 13.5051 14.7692 13.7499 14.7692ZM13.7499 11.7615C13.9012 11.7615 14.0384 11.7077 14.1615 11.6C14.2845 11.4923 14.3595 11.3558 14.3865 11.1904C14.4198 10.9583 14.4938 10.7558 14.6086 10.5827C14.7233 10.4096 14.9384 10.1718 15.2538 9.8692C15.7153 9.4269 16.0294 9.05318 16.1961 8.74805C16.3627 8.44293 16.4461 8.08845 16.4461 7.6846C16.4461 6.97307 16.1948 6.38621 15.6922 5.92403C15.1897 5.46184 14.5422 5.23075 13.7499 5.23075C13.2384 5.23075 12.7704 5.34934 12.3461 5.58652C11.9217 5.82371 11.5826 6.16281 11.3288 6.60383C11.248 6.73844 11.2397 6.87979 11.3038 7.02788C11.3679 7.17594 11.4775 7.28203 11.6326 7.34613C11.7775 7.41023 11.923 7.41696 12.0691 7.36633C12.2153 7.31568 12.3339 7.22305 12.4249 7.08845C12.5877 6.84613 12.7788 6.6644 12.998 6.54325C13.2172 6.42208 13.4679 6.3615 13.7499 6.3615C14.1884 6.3615 14.5486 6.48843 14.8307 6.74228C15.1128 6.99613 15.2538 7.33074 15.2538 7.74613C15.2538 7.99869 15.1823 8.23556 15.0394 8.45673C14.8964 8.67788 14.6487 8.94999 14.2961 9.27308C13.864 9.64486 13.5781 9.95127 13.4384 10.1923C13.2987 10.4333 13.2121 10.7577 13.1788 11.1654C13.1621 11.3205 13.2102 11.4586 13.323 11.5798C13.4358 11.7009 13.5781 11.7615 13.7499 11.7615ZM8.05765 17.5C7.55252 17.5 7.12496 17.325 6.77498 16.975C6.42498 16.625 6.24998 16.1974 6.24998 15.6923V4.3077C6.24998 3.80257 6.42498 3.375 6.77498 3.025C7.12496 2.675 7.55252 2.5 8.05765 2.5H19.4422C19.9473 2.5 20.3749 2.675 20.7249 3.025C21.0749 3.375 21.2499 3.80257 21.2499 4.3077V15.6923C21.2499 16.1974 21.0749 16.625 20.7249 16.975C20.3749 17.325 19.9473 17.5 19.4422 17.5H8.05765ZM8.05765 16H19.4422C19.5191 16 19.5897 15.9679 19.6538 15.9038C19.7179 15.8397 19.7499 15.7692 19.7499 15.6923V4.3077C19.7499 4.23077 19.7179 4.16024 19.6538 4.09613C19.5897 4.03203 19.5191 3.99998 19.4422 3.99998H8.05765C7.98072 3.99998 7.9102 4.03203 7.8461 4.09613C7.78198 4.16024 7.74993 4.23077 7.74993 4.3077V15.6923C7.74993 15.7692 7.78198 15.8397 7.8461 15.9038C7.9102 15.9679 7.98072 16 8.05765 16ZM4.55768 20.9999C4.05256 20.9999 3.625 20.8249 3.275 20.4749C2.925 20.1249 2.75 19.6973 2.75 19.1922V7.05768C2.75 6.84486 2.82179 6.66666 2.96537 6.52308C3.10897 6.37949 3.28718 6.3077 3.49998 6.3077C3.71279 6.3077 3.891 6.37949 4.0346 6.52308C4.17818 6.66666 4.24998 6.84486 4.24998 7.05768V19.1922C4.24998 19.2692 4.28202 19.3397 4.34613 19.4038C4.41024 19.4679 4.48076 19.5 4.55768 19.5H16.6922C16.905 19.5 17.0832 19.5717 17.2268 19.7153C17.3704 19.8589 17.4422 20.0371 17.4422 20.2499C17.4422 20.4627 17.3704 20.6409 17.2268 20.7845C17.0832 20.9281 16.905 20.9999 16.6922 20.9999H4.55768Z" fill="url(#paint0_linear_35_622)"/>
</g>
<defs>
<linearGradient id="paint0_linear_35_622" x1="11.9999" y1="2.5" x2="11.9999" y2="20.9999" gradientUnits="userSpaceOnUse">
<stop stop-color="#FF814A"/>
<stop offset="1" stop-color="#FC553B"/>
</linearGradient>
</defs>
</svg>
