<svg width="52" height="52" viewBox="0 0 52 52" fill="none" xmlns="http://www.w3.org/2000/svg">
<path d="M43.875 19.5C43.8768 16.4877 43.1173 13.5237 41.667 10.8835C40.2167 8.24324 38.1227 6.01234 35.5794 4.39799C33.0362 2.78364 30.1262 1.83821 27.1198 1.64949C24.1134 1.46078 21.108 2.03492 18.3829 3.31858C15.6577 4.60223 13.3012 6.55377 11.5321 8.99193C9.76308 11.4301 8.63889 14.2758 8.26398 17.2647C7.88908 20.2536 8.27561 23.2888 9.38769 26.0884C10.4998 28.8879 12.3013 31.361 14.625 33.278V48.75C14.6248 49.0271 14.6955 49.2997 14.8303 49.5418C14.9652 49.784 15.1597 49.9876 15.3954 50.1333C15.6311 50.279 15.9002 50.3621 16.1771 50.3745C16.4539 50.387 16.7294 50.3284 16.9772 50.2044L26 45.7031L35.0248 50.2145C35.2511 50.3228 35.4992 50.3777 35.75 50.375C36.181 50.375 36.5943 50.2038 36.8991 49.899C37.2038 49.5943 37.375 49.181 37.375 48.75V33.278C39.4081 31.6035 41.0454 29.4996 42.1692 27.1175C43.293 24.7353 43.8756 22.1339 43.875 19.5ZM11.375 19.5C11.375 16.6074 12.2327 13.7799 13.8398 11.3748C15.4468 8.96971 17.7309 7.09519 20.4033 5.98826C23.0756 4.88133 26.0162 4.5917 28.8532 5.15601C31.6902 5.72032 34.2961 7.11321 36.3414 9.15856C38.3868 11.2039 39.7797 13.8098 40.344 16.6468C40.9083 19.4838 40.6187 22.4244 39.5117 25.0967C38.4048 27.7691 36.5303 30.0532 34.1252 31.6602C31.7201 33.2673 28.8926 34.125 26 34.125C22.1225 34.1207 18.4051 32.5785 15.6633 29.8367C12.9215 27.0949 11.3793 23.3775 11.375 19.5ZM14.625 19.5C14.625 17.2502 15.2921 15.051 16.542 13.1804C17.7919 11.3098 19.5685 9.85181 21.647 8.99087C23.7255 8.12992 26.0126 7.90466 28.2192 8.34356C30.4257 8.78247 32.4525 9.86583 34.0433 11.4567C35.6342 13.0475 36.7175 15.0743 37.1564 17.2808C37.5953 19.4874 37.3701 21.7745 36.5091 23.853C35.6482 25.9315 34.1902 27.7081 32.3196 28.958C30.449 30.2079 28.2498 30.875 26 30.875C22.9842 30.8718 20.0928 29.6723 17.9602 27.5398C15.8277 25.4072 14.6282 22.5158 14.625 19.5Z" fill="url(#paint0_linear_29_1573)"/>
<defs>
<linearGradient id="paint0_linear_29_1573" x1="15.0764" y1="12.4503" x2="43.1937" y2="33.3819" gradientUnits="userSpaceOnUse">
<stop stop-color="#FF843D"/>
<stop offset="1" stop-color="#FF5942"/>
</linearGradient>
</defs>
</svg>
