<svg width="52" height="52" viewBox="0 0 52 52" fill="none" xmlns="http://www.w3.org/2000/svg">
<path d="M35.75 34.9375C35.75 35.4196 35.607 35.8909 35.3392 36.2917C35.0714 36.6925 34.6907 37.005 34.2453 37.1895C33.7999 37.3739 33.3098 37.4222 32.837 37.3282C32.3641 37.2341 31.9298 37.002 31.5889 36.6611C31.248 36.3202 31.0159 35.8859 30.9218 35.413C30.8278 34.9402 30.8761 34.4501 31.0605 34.0047C31.245 33.5593 31.5575 33.1786 31.9583 32.9108C32.3591 32.643 32.8304 32.5 33.3125 32.5C33.959 32.5 34.579 32.7568 35.0361 33.2139C35.4932 33.671 35.75 34.291 35.75 34.9375ZM18.6875 19.5C19.1696 19.5 19.6409 19.357 20.0417 19.0892C20.4425 18.8214 20.755 18.4407 20.9395 17.9953C21.1239 17.5499 21.1722 17.0598 21.0782 16.587C20.9841 16.1141 20.752 15.6798 20.4111 15.3389C20.0702 14.998 19.6359 14.7659 19.163 14.6718C18.6902 14.5778 18.2001 14.6261 17.7547 14.8105C17.3093 14.995 16.9286 15.3075 16.6608 15.7083C16.393 16.1091 16.25 16.5804 16.25 17.0625C16.25 17.709 16.5068 18.329 16.9639 18.7861C17.421 19.2432 18.041 19.5 18.6875 19.5ZM45.5 9.75V42.25C45.5 43.112 45.1576 43.9386 44.5481 44.5481C43.9386 45.1576 43.112 45.5 42.25 45.5H9.75C8.88805 45.5 8.0614 45.1576 7.4519 44.5481C6.84241 43.9386 6.5 43.112 6.5 42.25V9.75C6.5 8.88805 6.84241 8.0614 7.4519 7.4519C8.0614 6.84241 8.88805 6.5 9.75 6.5H42.25C43.112 6.5 43.9386 6.84241 44.5481 7.4519C45.1576 8.0614 45.5 8.88805 45.5 9.75ZM13 17.0625C13 18.1874 13.3336 19.287 13.9585 20.2223C14.5835 21.1576 15.4717 21.8866 16.511 22.3171C17.5502 22.7475 18.6938 22.8602 19.7971 22.6407C20.9003 22.4213 21.9138 21.8796 22.7092 21.0842C23.5046 20.2888 24.0463 19.2753 24.2657 18.1721C24.4852 17.0688 24.3725 15.9252 23.9421 14.886C23.5116 13.8467 22.7826 12.9585 21.8473 12.3335C20.912 11.7086 19.8124 11.375 18.6875 11.375C17.1791 11.375 15.7324 11.9742 14.6658 13.0408C13.5992 14.1074 13 15.5541 13 17.0625ZM39 34.9375C39 33.8126 38.6664 32.713 38.0415 31.7777C37.4165 30.8424 36.5283 30.1134 35.489 29.6829C34.4498 29.2525 33.3062 29.1398 32.2029 29.3593C31.0997 29.5787 30.0862 30.1204 29.2908 30.9158C28.4954 31.7112 27.9537 32.7247 27.7343 33.8279C27.5148 34.9312 27.6275 36.0748 28.0579 37.114C28.4884 38.1533 29.2174 39.0415 30.1527 39.6665C31.088 40.2914 32.1876 40.625 33.3125 40.625C34.8209 40.625 36.2676 40.0258 37.3342 38.9592C38.4008 37.8926 39 36.4459 39 34.9375ZM38.5247 13.4753C38.3738 13.3242 38.1945 13.2044 37.9973 13.1226C37.8 13.0408 37.5886 12.9987 37.375 12.9987C37.1614 12.9987 36.95 13.0408 36.7527 13.1226C36.5555 13.2044 36.3762 13.3242 36.2253 13.4753L13.4753 36.2253C13.1704 36.5302 12.9991 36.9438 12.9991 37.375C12.9991 37.8062 13.1704 38.2198 13.4753 38.5247C13.7802 38.8296 14.1938 39.0009 14.625 39.0009C15.0562 39.0009 15.4698 38.8296 15.7747 38.5247L38.5247 15.7747C38.6758 15.6238 38.7956 15.4445 38.8774 15.2473C38.9592 15.05 39.0013 14.8386 39.0013 14.625C39.0013 14.4114 38.9592 14.2 38.8774 14.0027C38.7956 13.8054 38.6758 13.6262 38.5247 13.4753Z" fill="url(#paint0_linear_29_1579)"/>
<defs>
<linearGradient id="paint0_linear_29_1579" x1="14.0833" y1="15.1667" x2="37.5556" y2="39" gradientUnits="userSpaceOnUse">
<stop stop-color="#FF843D"/>
<stop offset="1" stop-color="#FF5942"/>
</linearGradient>
</defs>
</svg>
