<svg width="70" height="70" viewBox="0 0 70 70" fill="none" xmlns="http://www.w3.org/2000/svg">
<g clip-path="url(#clip0_103_1136)">
<path d="M69.6828 47.3485C68.211 45.8872 66.3846 44.8335 64.3828 44.2909C62.3809 43.7483 60.2724 43.7353 58.2641 44.2532L44.0453 47.972C44.8875 46.4954 44.4938 45.9376 44.4938 45.7845C44.3591 45.2782 44.0539 44.8339 43.6297 44.5267L35.2406 38.3907C33.1837 36.8967 30.7063 36.0926 28.1641 36.0938H21.7328C19.4633 36.0849 17.2375 36.7182 15.3125 37.9204L9.26406 41.7267C9.10644 41.8252 8.97652 41.9622 8.88658 42.1249C8.79664 42.2876 8.74963 42.4705 8.75 42.6563V64.5313C8.75 64.8214 8.86524 65.0996 9.07035 65.3047C9.27547 65.5099 9.55367 65.6251 9.84375 65.6251C18.0031 65.6251 19.95 65.461 23.3625 66.2485C33.5453 68.6001 34.3 68.9063 36.7172 68.9063C40.0988 68.914 43.3958 67.8495 46.1344 65.8657L69.5406 49.011C69.6701 48.919 69.7779 48.8 69.8567 48.6621C69.9354 48.5243 69.9832 48.3709 69.9968 48.2127C70.0103 48.0545 69.9892 47.8953 69.935 47.746C69.8808 47.5968 69.7947 47.4612 69.6828 47.3485Z" fill="#FCCAC0"/>
<path d="M7.65625 37.1875H3.28125C1.46907 37.1875 0 38.6566 0 40.4688V66.7188C0 68.5309 1.46907 70 3.28125 70H7.65625C9.46843 70 10.9375 68.5309 10.9375 66.7188V40.4688C10.9375 38.6566 9.46843 37.1875 7.65625 37.1875Z" fill="#FF5942"/>
<path d="M6.5625 67.8125C7.77062 67.8125 8.75 66.8331 8.75 65.625C8.75 64.4169 7.77062 63.4375 6.5625 63.4375C5.35438 63.4375 4.375 64.4169 4.375 65.625C4.375 66.8331 5.35438 67.8125 6.5625 67.8125Z" fill="white"/>
<path d="M47.0311 47.1843C46.6224 48.2226 45.9916 49.1591 45.183 49.928C44.3743 50.697 43.4074 51.2799 42.3499 51.6359C41.3263 51.9791 40.2416 52.102 39.1672 51.9964C38.0927 51.8909 37.0527 51.5593 36.1155 51.0234L34.8358 50.3125C34.5834 50.1674 34.399 49.9281 34.3231 49.647C34.2472 49.366 34.2861 49.0664 34.4311 48.814C34.5762 48.5616 34.8155 48.3772 35.0965 48.3013C35.3775 48.2254 35.6772 48.2643 35.9295 48.4093L37.1983 49.1312C38.289 49.7654 39.5655 50.003 40.8114 49.8037C42.0572 49.6044 43.1959 48.9804 44.0342 48.0374L47.0311 47.1843Z" fill="#FFAC9A"/>
<path d="M50.3125 39.375C60.5815 39.375 68.9062 31.0503 68.9062 20.7812C68.9062 10.5122 60.5815 2.1875 50.3125 2.1875C40.0435 2.1875 31.7188 10.5122 31.7188 20.7812C31.7188 31.0503 40.0435 39.375 50.3125 39.375Z" fill="#FF5942"/>
<path d="M50.3125 35C58.1653 35 64.5312 28.634 64.5312 20.7812C64.5312 12.9285 58.1653 6.5625 50.3125 6.5625C42.4597 6.5625 36.0938 12.9285 36.0938 20.7812C36.0938 28.634 42.4597 35 50.3125 35Z" fill="#FF5942"/>
<path d="M28.7218 9.05625C27.8607 9.53459 27.1124 10.1923 26.5274 10.9848C25.9424 11.7773 25.5345 12.6862 25.3311 13.65L25.178 14.3828C25.178 14.6729 25.0628 14.9511 24.8577 15.1562C24.6525 15.3613 24.3743 15.4766 24.0843 15.4766C23.7942 15.4766 23.516 15.3613 23.3109 15.1562C23.1057 14.9511 22.9905 14.6729 22.9905 14.3828L22.8374 13.65C22.634 12.6862 22.2261 11.7773 21.6411 10.9848C21.0562 10.1923 20.3078 9.53459 19.4468 9.05625C19.2016 8.91392 18.998 8.70969 18.8566 8.464C18.7151 8.21831 18.6406 7.93976 18.6406 7.65625C18.6406 7.37274 18.7151 7.09419 18.8566 6.8485C18.998 6.6028 19.2016 6.39857 19.4468 6.25625C20.3078 5.77791 21.0562 5.12024 21.6411 4.32772C22.2261 3.5352 22.634 2.6263 22.8374 1.6625L22.9686 0.929687C22.9686 0.639607 23.0839 0.361407 23.289 0.156289C23.4941 -0.0488285 23.7723 -0.164062 24.0624 -0.164062C24.3525 -0.164062 24.6307 -0.0488285 24.8358 0.156289C25.0409 0.361407 25.1561 0.639607 25.1561 0.929687L25.3093 1.6625C25.5126 2.6263 25.9206 3.5352 26.5055 4.32772C27.0905 5.12024 27.8388 5.77791 28.6999 6.25625C28.9462 6.39665 29.1513 6.59928 29.2947 6.84388C29.4381 7.08847 29.5148 7.36643 29.517 7.64995C29.5192 7.93347 29.4469 8.2126 29.3074 8.4594C29.1678 8.7062 28.9659 8.91202 28.7218 9.05625Z" fill="#FF5942"/>
<path d="M51.4062 30.625H49.2188C47.7683 30.625 46.3773 30.0488 45.3518 29.0232C44.3262 27.9977 43.75 26.6067 43.75 25.1562C43.75 24.8662 43.8652 24.588 44.0704 24.3829C44.2755 24.1777 44.5537 24.0625 44.8438 24.0625C45.1338 24.0625 45.412 24.1777 45.6171 24.3829C45.8223 24.588 45.9375 24.8662 45.9375 25.1562C45.9375 26.0265 46.2832 26.8611 46.8986 27.4764C47.5139 28.0918 48.3485 28.4375 49.2188 28.4375H51.4062C52.2765 28.4375 53.1111 28.0918 53.7264 27.4764C54.3418 26.8611 54.6875 26.0265 54.6875 25.1562C54.6875 24.286 54.3418 23.4514 53.7264 22.8361C53.1111 22.2207 52.2765 21.875 51.4062 21.875H49.2188C47.7683 21.875 46.3773 21.2988 45.3518 20.2732C44.3262 19.2477 43.75 17.8567 43.75 16.4062C43.75 14.9558 44.3262 13.5648 45.3518 12.5393C46.3773 11.5137 47.7683 10.9375 49.2188 10.9375H51.4062C52.8567 10.9375 54.2477 11.5137 55.2732 12.5393C56.2988 13.5648 56.875 14.9558 56.875 16.4062C56.875 16.6963 56.7598 16.9745 56.5546 17.1796C56.3495 17.3848 56.0713 17.5 55.7812 17.5C55.4912 17.5 55.213 17.3848 55.0079 17.1796C54.8027 16.9745 54.6875 16.6963 54.6875 16.4062C54.6875 15.536 54.3418 14.7014 53.7264 14.0861C53.1111 13.4707 52.2765 13.125 51.4062 13.125H49.2188C48.3485 13.125 47.5139 13.4707 46.8986 14.0861C46.2832 14.7014 45.9375 15.536 45.9375 16.4062C45.9375 17.2765 46.2832 18.1111 46.8986 18.7264C47.5139 19.3418 48.3485 19.6875 49.2188 19.6875H51.4062C52.8567 19.6875 54.2477 20.2637 55.2732 21.2893C56.2988 22.3148 56.875 23.7058 56.875 25.1562C56.875 26.6067 56.2988 27.9977 55.2732 29.0232C54.2477 30.0488 52.8567 30.625 51.4062 30.625Z" fill="white"/>
<path d="M50.3125 32.8125C50.0224 32.8125 49.7442 32.6973 49.5391 32.4921C49.334 32.287 49.2188 32.0088 49.2188 31.7188V9.84375C49.2188 9.55367 49.334 9.27547 49.5391 9.07035C49.7442 8.86523 50.0224 8.75 50.3125 8.75C50.6026 8.75 50.8808 8.86523 51.0859 9.07035C51.291 9.27547 51.4062 9.55367 51.4062 9.84375V31.7188C51.4062 32.0088 51.291 32.287 51.0859 32.4921C50.8808 32.6973 50.6026 32.8125 50.3125 32.8125Z" fill="white"/>
</g>
<defs>
<clipPath id="clip0_103_1136">
<rect width="70" height="70" fill="white"/>
</clipPath>
</defs>
</svg>
