<svg width="42" height="42" viewBox="0 0 42 42" fill="none" xmlns="http://www.w3.org/2000/svg">
<path d="M34.125 6.5625H7.875C7.17881 6.5625 6.51113 6.83906 6.01884 7.33134C5.52656 7.82363 5.25 8.49131 5.25 9.1875V18.8295C5.25 33.5311 17.6892 38.4087 20.1797 39.2372C20.7116 39.4181 21.2884 39.4181 21.8203 39.2372C24.3141 38.4087 36.75 33.5311 36.75 18.8295V9.1875C36.75 8.49131 36.4734 7.82363 35.9812 7.33134C35.4889 6.83906 34.8212 6.5625 34.125 6.5625ZM28.4911 17.9911L19.3036 27.1786C19.1817 27.3006 19.0369 27.3974 18.8776 27.4635C18.7183 27.5295 18.5475 27.5635 18.375 27.5635C18.2025 27.5635 18.0317 27.5295 17.8724 27.4635C17.7131 27.3974 17.5683 27.3006 17.4464 27.1786L13.5089 23.2411C13.2626 22.9948 13.1243 22.6608 13.1243 22.3125C13.1243 21.9642 13.2626 21.6302 13.5089 21.3839C13.7552 21.1376 14.0892 20.9993 14.4375 20.9993C14.7858 20.9993 15.1198 21.1376 15.3661 21.3839L18.375 24.3928L26.6339 16.1339C26.7558 16.012 26.9006 15.9152 27.0599 15.8492C27.2193 15.7832 27.39 15.7493 27.5625 15.7493C27.735 15.7493 27.9057 15.7832 28.0651 15.8492C28.2244 15.9152 28.3692 16.012 28.4911 16.1339C28.613 16.2559 28.7098 16.4006 28.7758 16.5599C28.8418 16.7193 28.8757 16.89 28.8757 17.0625C28.8757 17.235 28.8418 17.4057 28.7758 17.5651C28.7098 17.7244 28.613 17.8691 28.4911 17.9911Z" fill="url(#paint0_linear_29_1234)"/>
<defs>
<linearGradient id="paint0_linear_29_1234" x1="11.375" y1="13.8537" x2="31.1179" y2="33.0997" gradientUnits="userSpaceOnUse">
<stop stop-color="#FF843D"/>
<stop offset="1" stop-color="#FF5942"/>
</linearGradient>
</defs>
</svg>
